<svg width="32" height="24" viewBox="0 0 32 24" fill="none" xmlns="http://www.w3.org/2000/svg">
<path d="M18.7669 0H13.2329L11.5916 8.12729H20.4081L18.7669 0Z" fill="#26DBDC"/>
<path d="M31.9969 8.12729C31.8844 7.65729 31.6862 7.2073 31.3978 6.80742L28.331 2.55407C27.2986 1.12185 25.0922 0 23.308 0H20.6934L22.3345 8.12729H31.9969Z" fill="#26DBDC"/>
<path d="M11.7652 10.0156L16 22.2041L20.2345 10.0156H11.7652Z" fill="#26DBDC"/>
<path d="M11.3065 0H8.69192C6.90772 0 4.70129 1.12184 3.6687 2.554L0.601898 6.80748C0.313616 7.20737 0.115469 7.65729 0.00305176 8.12729H9.66516L11.3065 0Z" fill="#26DBDC"/>
<path d="M22.2335 10.0156L17.4166 23.8805C17.8585 23.7131 18.2648 23.4664 18.6144 23.1484L30.8471 12.0204C31.4359 11.4846 31.8244 10.7748 31.9999 10.0156H22.2335V10.0156Z" fill="#26DBDC"/>
<path d="M0 10.0156C0.17555 10.7749 0.563912 11.4847 1.15288 12.0204L13.3855 23.1484C13.7351 23.4665 14.1416 23.7132 14.5834 23.8806L9.76622 10.0157H0L0 10.0156Z" fill="#26DBDC"/>
</svg>
